^R:\VISUAL STUDIO\REPOS\BASICS - CIRCLES\DEPENDENCIES\OPENCSG-1.5.1\GLEW\SRC\GLEW.C
C:\WINDOWS\GLOBALIZATION\SORTING\SORTDEFAULT.NLS
R:\VISUAL STUDIO\COMMUNITY\VC\TOOLS\MSVC\14.34.31933\BIN\HOSTX64\X64\1033\CLUI.DLL
C:\WINDOWS\SYSTEM32\TZRES.DLL
R:\VISUAL STUDIO\REPOS\BASICS - CIRCLES\DEPENDENCIES\OPENCSG-1.5.1\GLEW\INCLUDE\GL\GLEW.H
R:\WINDOWS KITS\10\INCLUDE\10.0.22000.0\UM\GL\GLU.H
R:\WINDOWS KITS\10\INCLUDE\10.0.22000.0\SHARED\WINAPIFAMILY.H
R:\WINDOWS KITS\10\INCLUDE\10.0.22000.0\SHARED\WINPACKAGEFAMILY.H
R:\WINDOWS KITS\10\INCLUDE\10.0.22000.0\UM\GL\GL.H
R:\VISUAL STUDIO\REPOS\BASICS - CIRCLES\DEPENDENCIES\OPENCSG-1.5.1\GLEW\INCLUDE\GL\WGLEW.H
R:\WINDOWS KITS\10\INCLUDE\10.0.22000.0\UM\WINDOWS.H
R:\WINDOWS KITS\10\INCLUDE\10.0.22000.0\SHARED\SDKDDKVER.H
R:\VISUAL STUDIO\COMMUNITY\VC\TOOLS\MSVC\14.34.31933\INCLUDE\EXCPT.H
R:\VISUAL STUDIO\COMMUNITY\VC\TOOLS\MSVC\14.34.31933\INCLUDE\VCRUNTIME.H
R:\VISUAL STUDIO\COMMUNITY\VC\TOOLS\MSVC\14.34.31933\INCLUDE\SAL.H
R:\VISUAL STUDIO\COMMUNITY\VC\TOOLS\MSVC\14.34.31933\INCLUDE\CONCURRENCYSAL.H
R:\VISUAL STUDIO\COMMUNITY\VC\TOOLS\MSVC\14.34.31933\INCLUDE\VADEFS.H
R:\VISUAL STUDIO\COMMUNITY\VC\TOOLS\MSVC\14.34.31933\INCLUDE\STDARG.H
R:\WINDOWS KITS\10\INCLUDE\10.0.22000.0\SHARED\WINDEF.H
R:\WINDOWS KITS\10\INCLUDE\10.0.22000.0\SHARED\MINWINDEF.H
R:\WINDOWS KITS\10\INCLUDE\10.0.22000.0\SHARED\SPECSTRINGS.H
R:\WINDOWS KITS\10\INCLUDE\10.0.22000.0\SHARED\SPECSTRINGS_STRICT.H
R:\WINDOWS KITS\10\INCLUDE\10.0.22000.0\SHARED\SPECSTRINGS_UNDEF.H
R:\WINDOWS KITS\10\INCLUDE\10.0.22000.0\SHARED\DRIVERSPECS.H
R:\WINDOWS KITS\10\INCLUDE\10.0.22000.0\SHARED\SDV_DRIVERSPECS.H
R:\WINDOWS KITS\10\INCLUDE\10.0.22000.0\UM\WINNT.H
R:\WINDOWS KITS\10\INCLUDE\10.0.22000.0\UCRT\CTYPE.H
R:\WINDOWS KITS\10\INCLUDE\10.0.22000.0\UCRT\CORECRT.H
R:\WINDOWS KITS\10\INCLUDE\10.0.22000.0\UCRT\CORECRT_WCTYPE.H
R:\WINDOWS KITS\10\INCLUDE\10.0.22000.0\SHARED\KERNELSPECS.H
R:\WINDOWS KITS\10\INCLUDE\10.0.22000.0\SHARED\BASETSD.H
R:\WINDOWS KITS\10\INCLUDE\10.0.22000.0\SHARED\GUIDDEF.H
R:\WINDOWS KITS\10\INCLUDE\10.0.22000.0\UCRT\STRING.H
R:\WINDOWS KITS\10\INCLUDE\10.0.22000.0\UCRT\CORECRT_MEMORY.H
R:\WINDOWS KITS\10\INCLUDE\10.0.22000.0\UCRT\CORECRT_MEMCPY_S.H
R:\WINDOWS KITS\10\INCLUDE\10.0.22000.0\UCRT\ERRNO.H
R:\VISUAL STUDIO\COMMUNITY\VC\TOOLS\MSVC\14.34.31933\INCLUDE\VCRUNTIME_STRING.H
R:\WINDOWS KITS\10\INCLUDE\10.0.22000.0\UCRT\CORECRT_WSTRING.H
R:\WINDOWS KITS\10\INCLUDE\10.0.22000.0\SHARED\PSHPACK4.H
R:\WINDOWS KITS\10\INCLUDE\10.0.22000.0\SHARED\POPPACK.H
R:\WINDOWS KITS\10\INCLUDE\10.0.22000.0\SHARED\PSHPACK2.H
R:\WINDOWS KITS\10\INCLUDE\10.0.22000.0\SHARED\PSHPACK8.H
R:\WINDOWS KITS\10\INCLUDE\10.0.22000.0\SHARED\PSHPACK1.H
R:\WINDOWS KITS\10\INCLUDE\10.0.22000.0\SHARED\APISET.H
R:\WINDOWS KITS\10\INCLUDE\10.0.22000.0\SHARED\KTMTYPES.H
R:\WINDOWS KITS\10\INCLUDE\10.0.22000.0\UM\WINBASE.H
R:\WINDOWS KITS\10\INCLUDE\10.0.22000.0\SHARED\APISETCCONV.H
R:\WINDOWS KITS\10\INCLUDE\10.0.22000.0\UM\MINWINBASE.H
R:\WINDOWS KITS\10\INCLUDE\10.0.22000.0\UM\APIQUERY2.H
R:\WINDOWS KITS\10\INCLUDE\10.0.22000.0\UM\PROCESSENV.H
R:\WINDOWS KITS\10\INCLUDE\10.0.22000.0\UM\FILEAPIFROMAPP.H
R:\WINDOWS KITS\10\INCLUDE\10.0.22000.0\UM\FILEAPI.H
R:\WINDOWS KITS\10\INCLUDE\10.0.22000.0\UM\DEBUGAPI.H
R:\WINDOWS KITS\10\INCLUDE\10.0.22000.0\UM\UTILAPISET.H
R:\WINDOWS KITS\10\INCLUDE\10.0.22000.0\UM\HANDLEAPI.H
R:\WINDOWS KITS\10\INCLUDE\10.0.22000.0\UM\ERRHANDLINGAPI.H
R:\WINDOWS KITS\10\INCLUDE\10.0.22000.0\UM\FIBERSAPI.H
R:\WINDOWS KITS\10\INCLUDE\10.0.22000.0\UM\NAMEDPIPEAPI.H
R:\WINDOWS KITS\10\INCLUDE\10.0.22000.0\UM\PROFILEAPI.H
R:\WINDOWS KITS\10\INCLUDE\10.0.22000.0\UM\HEAPAPI.H
R:\WINDOWS KITS\10\INCLUDE\10.0.22000.0\UM\IOAPISET.H
R:\WINDOWS KITS\10\INCLUDE\10.0.22000.0\UM\SYNCHAPI.H
R:\WINDOWS KITS\10\INCLUDE\10.0.22000.0\UM\INTERLOCKEDAPI.H
R:\WINDOWS KITS\10\INCLUDE\10.0.22000.0\UM\PROCESSTHREADSAPI.H
R:\WINDOWS KITS\10\INCLUDE\10.0.22000.0\UM\SYSINFOAPI.H
R:\WINDOWS KITS\10\INCLUDE\10.0.22000.0\UM\MEMORYAPI.H
R:\WINDOWS KITS\10\INCLUDE\10.0.22000.0\UM\ENCLAVEAPI.H
R:\WINDOWS KITS\10\INCLUDE\10.0.22000.0\UM\THREADPOOLLEGACYAPISET.H
R:\WINDOWS KITS\10\INCLUDE\10.0.22000.0\UM\THREADPOOLAPISET.H
R:\WINDOWS KITS\10\INCLUDE\10.0.22000.0\UM\JOBAPI.H
R:\WINDOWS KITS\10\INCLUDE\10.0.22000.0\UM\JOBAPI2.H
R:\WINDOWS KITS\10\INCLUDE\10.0.22000.0\UM\WOW64APISET.H
R:\WINDOWS KITS\10\INCLUDE\10.0.22000.0\UM\LIBLOADERAPI.H
R:\WINDOWS KITS\10\INCLUDE\10.0.22000.0\UM\SECURITYBASEAPI.H
R:\WINDOWS KITS\10\INCLUDE\10.0.22000.0\UM\NAMESPACEAPI.H
R:\WINDOWS KITS\10\INCLUDE\10.0.22000.0\UM\SYSTEMTOPOLOGYAPI.H
R:\WINDOWS KITS\10\INCLUDE\10.0.22000.0\UM\PROCESSTOPOLOGYAPI.H
R:\WINDOWS KITS\10\INCLUDE\10.0.22000.0\UM\SECURITYAPPCONTAINER.H
R:\WINDOWS KITS\10\INCLUDE\10.0.22000.0\UM\REALTIMEAPISET.H
R:\WINDOWS KITS\10\INCLUDE\10.0.22000.0\SHARED\WINERROR.H
R:\WINDOWS KITS\10\INCLUDE\10.0.22000.0\UM\TIMEZONEAPI.H
R:\WINDOWS KITS\10\INCLUDE\10.0.22000.0\UM\WINGDI.H
R:\WINDOWS KITS\10\INCLUDE\10.0.22000.0\UM\WINUSER.H
R:\WINDOWS KITS\10\INCLUDE\10.0.22000.0\SHARED\TVOUT.H
R:\WINDOWS KITS\10\INCLUDE\10.0.22000.0\UM\WINNLS.H
R:\WINDOWS KITS\10\INCLUDE\10.0.22000.0\UM\DATETIMEAPI.H
R:\WINDOWS KITS\10\INCLUDE\10.0.22000.0\UM\STRINGAPISET.H
R:\WINDOWS KITS\10\INCLUDE\10.0.22000.0\UM\WINCON.H
R:\WINDOWS KITS\10\INCLUDE\10.0.22000.0\UM\WINCONTYPES.H
R:\WINDOWS KITS\10\INCLUDE\10.0.22000.0\UM\CONSOLEAPI.H
R:\WINDOWS KITS\10\INCLUDE\10.0.22000.0\UM\CONSOLEAPI2.H
R:\WINDOWS KITS\10\INCLUDE\10.0.22000.0\UM\CONSOLEAPI3.H
R:\WINDOWS KITS\10\INCLUDE\10.0.22000.0\UM\WINVER.H
R:\WINDOWS KITS\10\INCLUDE\10.0.22000.0\UM\VERRSRC.H
R:\WINDOWS KITS\10\INCLUDE\10.0.22000.0\UM\WINREG.H
R:\WINDOWS KITS\10\INCLUDE\10.0.22000.0\UM\REASON.H
R:\WINDOWS KITS\10\INCLUDE\10.0.22000.0\UM\WINNETWK.H
R:\WINDOWS KITS\10\INCLUDE\10.0.22000.0\SHARED\WNNC.H
R:\WINDOWS KITS\10\INCLUDE\10.0.22000.0\SHARED\STRALIGN.H
R:\WINDOWS KITS\10\INCLUDE\10.0.22000.0\UM\WINSVC.H
R:\WINDOWS KITS\10\INCLUDE\10.0.22000.0\UM\MCX.H
R:\WINDOWS KITS\10\INCLUDE\10.0.22000.0\UM\IMM.H
R:\WINDOWS KITS\10\INCLUDE\10.0.22000.0\UM\IME_CMODES.H
R:\WINDOWS KITS\10\INCLUDE\10.0.22000.0\UCRT\STDDEF.H
