^R:\VISUAL STUDIO\REPOS\BASICS - CIRCLES\DEPENDENCIES\OPENCSG-1.5.1\GLEW\BUILD\VC10\TMP\GLEW_STATIC\DEBUG\X64\GLEW.OBJ|R:\VISUAL STUDIO\REPOS\BASICS - CIRCLES\DEPENDENCIES\OPENCSG-1.5.1\GLEW\BUILD\VC10\TMP\GLEW_STATIC\DEBUG\X64\GLEW.RES
C:\USERS\CADIT-~1\APPDATA\LOCAL\TEMP\LNK{AC2D9364-F7B5-49AC-BB12-93488F569ECB}.TMP
R:\VISUAL STUDIO\REPOS\BASICS - CIRCLES\DEPENDENCIES\OPENCSG-1.5.1\GLEW\LIB\DEBUG\X64\GLEW32SD.LIB
