^R:\VISUAL STUDIO\REPOS\BASICS - CIRCLES\DEPENDENCIES\OPENCSG-1.5.1\GLEW\BUILD\GLEW.RC
R:\WINDOWS KITS\10\INCLUDE\10.0.22000.0\UM\WINDOWS.H
R:\WINDOWS KITS\10\INCLUDE\10.0.22000.0\SHARED\WINAPIFAMILY.H
R:\WINDOWS KITS\10\INCLUDE\10.0.22000.0\SHARED\WINPACKAGEFAMILY.H
R:\WINDOWS KITS\10\INCLUDE\10.0.22000.0\SHARED\SDKDDKVER.H
R:\WINDOWS KITS\10\INCLUDE\10.0.22000.0\UM\WINRESRC.H
R:\WINDOWS KITS\10\INCLUDE\10.0.22000.0\UM\WINUSER.RH
R:\WINDOWS KITS\10\INCLUDE\10.0.22000.0\UM\COMMCTRL.RH
R:\WINDOWS KITS\10\INCLUDE\10.0.22000.0\UM\DDE.RH
R:\WINDOWS KITS\10\INCLUDE\10.0.22000.0\UM\WINNT.RH
R:\WINDOWS KITS\10\INCLUDE\10.0.22000.0\UM\DLGS.H
R:\WINDOWS KITS\10\INCLUDE\10.0.22000.0\UM\WINVER.H
R:\WINDOWS KITS\10\INCLUDE\10.0.22000.0\SHARED\SPECSTRINGS.H
R:\VISUAL STUDIO\COMMUNITY\VC\TOOLS\MSVC\14.34.31933\INCLUDE\SAL.H
R:\VISUAL STUDIO\COMMUNITY\VC\TOOLS\MSVC\14.34.31933\INCLUDE\CONCURRENCYSAL.H
R:\WINDOWS KITS\10\INCLUDE\10.0.22000.0\SHARED\DRIVERSPECS.H
R:\WINDOWS KITS\10\INCLUDE\10.0.22000.0\SHARED\SDV_DRIVERSPECS.H
R:\WINDOWS KITS\10\INCLUDE\10.0.22000.0\UM\VERRSRC.H
