^R:\VISUAL STUDIO\REPOS\OPENGL\OPENGL\SRC\APPLICATION.CPP
/c /I"R:\VISUAL STUDIO\REPOS\OPENGL\DEPENDENCIES\GLFW\INCLUDE" /I"R:\VISUAL STUDIO\REPOS\OPENGL\DEPENDENCIES\GLEW\INCLUDE" /ZI /JMC /nologo /W3 /WX- /diagnostics:column /sdl /Od /D GLEW_STATIC /D _DEBUG /D _CONSOLE /D _UNICODE /D UNICODE /Gm- /EHsc /RTC1 /MDd /GS /fp:precise /Zc:wchar_t /Zc:forScope /Zc:inline /permissive- /Fo"X64\DEBUG\\" /Fd"X64\DEBUG\VC143.PDB" /external:W3 /Gd /TP /FC R:\VISUAL STUDIO\REPOS\OPENGL\OPENGL\SRC\APPLICATION.CPP
^R:\VISUAL STUDIO\REPOS\BASICS - CIRCLES\OPENGL\SRC\APPLICATION.CPP
/c /I"R:\VISUAL STUDIO\REPOS\BASICS - CIRCLES\DEPENDENCIES\GLFW\INCLUDE" /I"R:\VISUAL STUDIO\REPOS\BASICS - CIRCLES\DEPENDENCIES\GLEW\INCLUDE" /ZI /JMC /nologo /W3 /WX- /diagnostics:column /sdl /Od /D GLEW_STATIC /D _DEBUG /D _CONSOLE /D _UNICODE /D UNICODE /Gm- /EHsc /RTC1 /MDd /GS /fp:precise /Zc:wchar_t /Zc:forScope /Zc:inline /permissive- /Fo"X64\DEBUG\\" /Fd"X64\DEBUG\VC143.PDB" /external:W3 /Gd /TP /FC R:\VISUAL STUDIO\REPOS\BASICS - CIRCLES\OPENGL\SRC\APPLICATION.CPP
