^R:\VISUAL STUDIO\REPOS\OPENGL\OPENGL\X64\DEBUG\APPLICATION.OBJ
R:\VISUAL STUDIO\REPOS\OPENGL\DEPENDENCIES\GLFW\LIB-VC2022\GLFW3.LIB
R:\WINDOWS KITS\10\LIB\10.0.22000.0\UM\X64\OPENGL32.LIB
R:\WINDOWS KITS\10\LIB\10.0.22000.0\UM\X64\USER32.LIB
R:\WINDOWS KITS\10\LIB\10.0.22000.0\UM\X64\GDI32.LIB
R:\WINDOWS KITS\10\LIB\10.0.22000.0\UM\X64\SHELL32.LIB
R:\VISUAL STUDIO\REPOS\OPENGL\DEPENDENCIES\GLEW\LIB\RELEASE\X64\GLEW32S.LIB
R:\VISUAL STUDIO\REPOS\OPENGL\OPENGL\X64\DEBUG\APPLICATION.OBJ
R:\VISUAL STUDIO\REPOS\OPENGL\OPENGL\X64\DEBUG\OPENGL.ILK
C:\WINDOWS\SYSTEM32\TZRES.DLL
C:\WINDOWS\GLOBALIZATION\SORTING\SORTDEFAULT.NLS
R:\VISUAL STUDIO\COMMUNITY\VC\TOOLS\MSVC\14.34.31933\LIB\X64\MSVCPRTD.LIB
R:\VISUAL STUDIO\COMMUNITY\VC\TOOLS\MSVC\14.34.31933\LIB\X64\MSVCRTD.LIB
R:\VISUAL STUDIO\COMMUNITY\VC\TOOLS\MSVC\14.34.31933\LIB\X64\OLDNAMES.LIB
R:\WINDOWS KITS\10\LIB\10.0.22000.0\UM\X64\UUID.LIB
R:\VISUAL STUDIO\COMMUNITY\VC\TOOLS\MSVC\14.34.31933\LIB\X64\MSVCRT.LIB
R:\VISUAL STUDIO\COMMUNITY\VC\TOOLS\MSVC\14.34.31933\LIB\X64\LIBCMT.LIB
R:\WINDOWS KITS\10\LIB\10.0.22000.0\UM\X64\KERNEL32.LIB
R:\VISUAL STUDIO\COMMUNITY\VC\TOOLS\MSVC\14.34.31933\LIB\X64\VCRUNTIMED.LIB
R:\WINDOWS KITS\10\LIB\10.0.22000.0\UCRT\X64\UCRTD.LIB
R:\VISUAL STUDIO\COMMUNITY\VC\TOOLS\MSVC\14.34.31933\BIN\HOSTX64\X64\CVTRES.EXE
R:\VISUAL STUDIO\REPOS\OPENGL\OPENGL\X64\DEBUG\VC143.PDB
R:\VISUAL STUDIO\COMMUNITY\VC\TOOLS\MSVC\14.34.31933\BIN\HOSTX64\X64\1033\LINKUI.DLL
^R:\VISUAL STUDIO\REPOS\BASICS - CIRCLES\OPENGL\X64\DEBUG\APPLICATION.OBJ
R:\VISUAL STUDIO\REPOS\BASICS - CIRCLES\DEPENDENCIES\GLFW\LIB-VC2022\GLFW3.LIB
R:\WINDOWS KITS\10\LIB\10.0.22000.0\UM\X64\OPENGL32.LIB
R:\WINDOWS KITS\10\LIB\10.0.22000.0\UM\X64\USER32.LIB
R:\WINDOWS KITS\10\LIB\10.0.22000.0\UM\X64\GDI32.LIB
R:\WINDOWS KITS\10\LIB\10.0.22000.0\UM\X64\SHELL32.LIB
R:\VISUAL STUDIO\REPOS\BASICS - CIRCLES\DEPENDENCIES\GLEW\LIB\RELEASE\X64\GLEW32S.LIB
R:\VISUAL STUDIO\REPOS\BASICS - CIRCLES\OPENGL\X64\DEBUG\APPLICATION.OBJ
R:\VISUAL STUDIO\REPOS\BASICS - CIRCLES\OPENGL\X64\DEBUG\OPENGL.ILK
C:\WINDOWS\SYSTEM32\TZRES.DLL
C:\WINDOWS\GLOBALIZATION\SORTING\SORTDEFAULT.NLS
R:\VISUAL STUDIO\COMMUNITY\VC\TOOLS\MSVC\14.34.31933\LIB\X64\MSVCPRTD.LIB
R:\VISUAL STUDIO\COMMUNITY\VC\TOOLS\MSVC\14.34.31933\LIB\X64\MSVCRTD.LIB
R:\VISUAL STUDIO\COMMUNITY\VC\TOOLS\MSVC\14.34.31933\LIB\X64\OLDNAMES.LIB
R:\WINDOWS KITS\10\LIB\10.0.22000.0\UM\X64\UUID.LIB
R:\VISUAL STUDIO\COMMUNITY\VC\TOOLS\MSVC\14.34.31933\LIB\X64\MSVCRT.LIB
R:\VISUAL STUDIO\COMMUNITY\VC\TOOLS\MSVC\14.34.31933\LIB\X64\LIBCMT.LIB
R:\WINDOWS KITS\10\LIB\10.0.22000.0\UM\X64\KERNEL32.LIB
R:\VISUAL STUDIO\COMMUNITY\VC\TOOLS\MSVC\14.34.31933\LIB\X64\VCRUNTIMED.LIB
R:\WINDOWS KITS\10\LIB\10.0.22000.0\UCRT\X64\UCRTD.LIB
R:\VISUAL STUDIO\REPOS\BASICS - CIRCLES\OPENGL\X64\DEBUG\VC143.PDB
