^R:\VISUAL STUDIO\REPOS\BASICS - CIRCLES\DEPENDENCIES\OPENCSG-1.5.1\RENDERTEXTURE\RENDERTEXTURE.CPP|R:\VISUAL STUDIO\REPOS\BASICS - CIRCLES\DEPENDENCIES\OPENCSG-1.5.1\SRC\AREA.CPP|R:\VISUAL STUDIO\REPOS\BASICS - CIRCLES\DEPENDENCIES\OPENCSG-1.5.1\SRC\BATCH.CPP|R:\VISUAL STUDIO\REPOS\BASICS - CIRCLES\DEPENDENCIES\OPENCSG-1.5.1\SRC\CHANNELMANAGER.CPP|R:\VISUAL STUDIO\REPOS\BASICS - CIRCLES\DEPENDENCIES\OPENCSG-1.5.1\SRC\CONTEXT.CPP|R:\VISUAL STUDIO\REPOS\BASICS - CIRCLES\DEPENDENCIES\OPENCSG-1.5.1\SRC\FRAMEBUFFEROBJECT.CPP|R:\VISUAL STUDIO\REPOS\BASICS - CIRCLES\DEPENDENCIES\OPENCSG-1.5.1\SRC\FRAMEBUFFEROBJECTEXT.CPP|R:\VISUAL STUDIO\REPOS\BASICS - CIRCLES\DEPENDENCIES\OPENCSG-1.5.1\SRC\OCCLUSIONQUERY.CPP|R:\VISUAL STUDIO\REPOS\BASICS - CIRCLES\DEPENDENCIES\OPENCSG-1.5.1\SRC\OPENCSGRENDER.CPP|R:\VISUAL STUDIO\REPOS\BASICS - CIRCLES\DEPENDENCIES\OPENCSG-1.5.1\SRC\OPENGLHELPER.CPP|R:\VISUAL STUDIO\REPOS\BASICS - CIRCLES\DEPENDENCIES\OPENCSG-1.5.1\SRC\PBUFFERTEXTURE.CPP|R:\VISUAL STUDIO\REPOS\BASICS - CIRCLES\DEPENDENCIES\OPENCSG-1.5.1\SRC\PRIMITIVE.CPP|R:\VISUAL STUDIO\REPOS\BASICS - CIRCLES\DEPENDENCIES\OPENCSG-1.5.1\SRC\PRIMITIVEHELPER.CPP|R:\VISUAL STUDIO\REPOS\BASICS - CIRCLES\DEPENDENCIES\OPENCSG-1.5.1\SRC\RENDERGOLDFEATHER.CPP|R:\VISUAL STUDIO\REPOS\BASICS - CIRCLES\DEPENDENCIES\OPENCSG-1.5.1\SRC\RENDERSCS.CPP|R:\VISUAL STUDIO\REPOS\BASICS - CIRCLES\DEPENDENCIES\OPENCSG-1.5.1\SRC\SCISSORMEMO.CPP|R:\VISUAL STUDIO\REPOS\BASICS - CIRCLES\DEPENDENCIES\OPENCSG-1.5.1\SRC\SETTINGS.CPP|R:\VISUAL STUDIO\REPOS\BASICS - CIRCLES\DEPENDENCIES\OPENCSG-1.5.1\SRC\STENCILMANAGER.CPP
R:\VISUAL STUDIO\REPOS\BASICS - CIRCLES\DEPENDENCIES\OPENCSG-1.5.1\WIN32\DEBUG\OPENCSGD.PDB
R:\VISUAL STUDIO\REPOS\BASICS - CIRCLES\DEPENDENCIES\OPENCSG-1.5.1\WIN32\DEBUG\STENCILMANAGER.OBJ
R:\VISUAL STUDIO\REPOS\BASICS - CIRCLES\DEPENDENCIES\OPENCSG-1.5.1\WIN32\DEBUG\SETTINGS.OBJ
R:\VISUAL STUDIO\REPOS\BASICS - CIRCLES\DEPENDENCIES\OPENCSG-1.5.1\WIN32\DEBUG\SCISSORMEMO.OBJ
R:\VISUAL STUDIO\REPOS\BASICS - CIRCLES\DEPENDENCIES\OPENCSG-1.5.1\WIN32\DEBUG\RENDERTEXTURE.OBJ
R:\VISUAL STUDIO\REPOS\BASICS - CIRCLES\DEPENDENCIES\OPENCSG-1.5.1\WIN32\DEBUG\RENDERSCS.OBJ
R:\VISUAL STUDIO\REPOS\BASICS - CIRCLES\DEPENDENCIES\OPENCSG-1.5.1\WIN32\DEBUG\RENDERGOLDFEATHER.OBJ
R:\VISUAL STUDIO\REPOS\BASICS - CIRCLES\DEPENDENCIES\OPENCSG-1.5.1\WIN32\DEBUG\PRIMITIVEHELPER.OBJ
R:\VISUAL STUDIO\REPOS\BASICS - CIRCLES\DEPENDENCIES\OPENCSG-1.5.1\WIN32\DEBUG\PRIMITIVE.OBJ
R:\VISUAL STUDIO\REPOS\BASICS - CIRCLES\DEPENDENCIES\OPENCSG-1.5.1\WIN32\DEBUG\PBUFFERTEXTURE.OBJ
R:\VISUAL STUDIO\REPOS\BASICS - CIRCLES\DEPENDENCIES\OPENCSG-1.5.1\WIN32\DEBUG\OPENGLHELPER.OBJ
R:\VISUAL STUDIO\REPOS\BASICS - CIRCLES\DEPENDENCIES\OPENCSG-1.5.1\WIN32\DEBUG\OPENCSGRENDER.OBJ
R:\VISUAL STUDIO\REPOS\BASICS - CIRCLES\DEPENDENCIES\OPENCSG-1.5.1\WIN32\DEBUG\OCCLUSIONQUERY.OBJ
R:\VISUAL STUDIO\REPOS\BASICS - CIRCLES\DEPENDENCIES\OPENCSG-1.5.1\WIN32\DEBUG\FRAMEBUFFEROBJECTEXT.OBJ
R:\VISUAL STUDIO\REPOS\BASICS - CIRCLES\DEPENDENCIES\OPENCSG-1.5.1\WIN32\DEBUG\FRAMEBUFFEROBJECT.OBJ
R:\VISUAL STUDIO\REPOS\BASICS - CIRCLES\DEPENDENCIES\OPENCSG-1.5.1\WIN32\DEBUG\CONTEXT.OBJ
R:\VISUAL STUDIO\REPOS\BASICS - CIRCLES\DEPENDENCIES\OPENCSG-1.5.1\WIN32\DEBUG\CHANNELMANAGER.OBJ
R:\VISUAL STUDIO\REPOS\BASICS - CIRCLES\DEPENDENCIES\OPENCSG-1.5.1\WIN32\DEBUG\BATCH.OBJ
R:\VISUAL STUDIO\REPOS\BASICS - CIRCLES\DEPENDENCIES\OPENCSG-1.5.1\WIN32\DEBUG\AREA.OBJ
^R:\VISUAL STUDIO\REPOS\BASICS - CIRCLES\DEPENDENCIES\OPENCSG-1.5.1\SRC\AREA.CPP
R:\VISUAL STUDIO\REPOS\BASICS - CIRCLES\DEPENDENCIES\OPENCSG-1.5.1\WIN32\DEBUG\OPENCSGD.PDB
^R:\VISUAL STUDIO\REPOS\BASICS - CIRCLES\DEPENDENCIES\OPENCSG-1.5.1\SRC\BATCH.CPP
R:\VISUAL STUDIO\REPOS\BASICS - CIRCLES\DEPENDENCIES\OPENCSG-1.5.1\WIN32\DEBUG\OPENCSGD.PDB
^R:\VISUAL STUDIO\REPOS\BASICS - CIRCLES\DEPENDENCIES\OPENCSG-1.5.1\SRC\CHANNELMANAGER.CPP
R:\VISUAL STUDIO\REPOS\BASICS - CIRCLES\DEPENDENCIES\OPENCSG-1.5.1\WIN32\DEBUG\OPENCSGD.PDB
^R:\VISUAL STUDIO\REPOS\BASICS - CIRCLES\DEPENDENCIES\OPENCSG-1.5.1\SRC\CONTEXT.CPP
R:\VISUAL STUDIO\REPOS\BASICS - CIRCLES\DEPENDENCIES\OPENCSG-1.5.1\WIN32\DEBUG\OPENCSGD.PDB
^R:\VISUAL STUDIO\REPOS\BASICS - CIRCLES\DEPENDENCIES\OPENCSG-1.5.1\SRC\FRAMEBUFFEROBJECT.CPP
R:\VISUAL STUDIO\REPOS\BASICS - CIRCLES\DEPENDENCIES\OPENCSG-1.5.1\WIN32\DEBUG\OPENCSGD.PDB
^R:\VISUAL STUDIO\REPOS\BASICS - CIRCLES\DEPENDENCIES\OPENCSG-1.5.1\SRC\FRAMEBUFFEROBJECTEXT.CPP
R:\VISUAL STUDIO\REPOS\BASICS - CIRCLES\DEPENDENCIES\OPENCSG-1.5.1\WIN32\DEBUG\OPENCSGD.PDB
^R:\VISUAL STUDIO\REPOS\BASICS - CIRCLES\DEPENDENCIES\OPENCSG-1.5.1\SRC\OCCLUSIONQUERY.CPP
R:\VISUAL STUDIO\REPOS\BASICS - CIRCLES\DEPENDENCIES\OPENCSG-1.5.1\WIN32\DEBUG\OPENCSGD.PDB
^R:\VISUAL STUDIO\REPOS\BASICS - CIRCLES\DEPENDENCIES\OPENCSG-1.5.1\SRC\OPENCSGRENDER.CPP
R:\VISUAL STUDIO\REPOS\BASICS - CIRCLES\DEPENDENCIES\OPENCSG-1.5.1\WIN32\DEBUG\OPENCSGD.PDB
^R:\VISUAL STUDIO\REPOS\BASICS - CIRCLES\DEPENDENCIES\OPENCSG-1.5.1\SRC\OPENGLHELPER.CPP
R:\VISUAL STUDIO\REPOS\BASICS - CIRCLES\DEPENDENCIES\OPENCSG-1.5.1\WIN32\DEBUG\OPENCSGD.PDB
^R:\VISUAL STUDIO\REPOS\BASICS - CIRCLES\DEPENDENCIES\OPENCSG-1.5.1\SRC\PBUFFERTEXTURE.CPP
R:\VISUAL STUDIO\REPOS\BASICS - CIRCLES\DEPENDENCIES\OPENCSG-1.5.1\WIN32\DEBUG\OPENCSGD.PDB
^R:\VISUAL STUDIO\REPOS\BASICS - CIRCLES\DEPENDENCIES\OPENCSG-1.5.1\SRC\PRIMITIVE.CPP
R:\VISUAL STUDIO\REPOS\BASICS - CIRCLES\DEPENDENCIES\OPENCSG-1.5.1\WIN32\DEBUG\OPENCSGD.PDB
^R:\VISUAL STUDIO\REPOS\BASICS - CIRCLES\DEPENDENCIES\OPENCSG-1.5.1\SRC\PRIMITIVEHELPER.CPP
R:\VISUAL STUDIO\REPOS\BASICS - CIRCLES\DEPENDENCIES\OPENCSG-1.5.1\WIN32\DEBUG\OPENCSGD.PDB
^R:\VISUAL STUDIO\REPOS\BASICS - CIRCLES\DEPENDENCIES\OPENCSG-1.5.1\SRC\RENDERGOLDFEATHER.CPP
R:\VISUAL STUDIO\REPOS\BASICS - CIRCLES\DEPENDENCIES\OPENCSG-1.5.1\WIN32\DEBUG\OPENCSGD.PDB
^R:\VISUAL STUDIO\REPOS\BASICS - CIRCLES\DEPENDENCIES\OPENCSG-1.5.1\SRC\RENDERSCS.CPP
R:\VISUAL STUDIO\REPOS\BASICS - CIRCLES\DEPENDENCIES\OPENCSG-1.5.1\WIN32\DEBUG\OPENCSGD.PDB
^R:\VISUAL STUDIO\REPOS\BASICS - CIRCLES\DEPENDENCIES\OPENCSG-1.5.1\RENDERTEXTURE\RENDERTEXTURE.CPP
R:\VISUAL STUDIO\REPOS\BASICS - CIRCLES\DEPENDENCIES\OPENCSG-1.5.1\WIN32\DEBUG\OPENCSGD.PDB
^R:\VISUAL STUDIO\REPOS\BASICS - CIRCLES\DEPENDENCIES\OPENCSG-1.5.1\SRC\SCISSORMEMO.CPP
R:\VISUAL STUDIO\REPOS\BASICS - CIRCLES\DEPENDENCIES\OPENCSG-1.5.1\WIN32\DEBUG\OPENCSGD.PDB
^R:\VISUAL STUDIO\REPOS\BASICS - CIRCLES\DEPENDENCIES\OPENCSG-1.5.1\SRC\SETTINGS.CPP
R:\VISUAL STUDIO\REPOS\BASICS - CIRCLES\DEPENDENCIES\OPENCSG-1.5.1\WIN32\DEBUG\OPENCSGD.PDB
^R:\VISUAL STUDIO\REPOS\BASICS - CIRCLES\DEPENDENCIES\OPENCSG-1.5.1\SRC\STENCILMANAGER.CPP
R:\VISUAL STUDIO\REPOS\BASICS - CIRCLES\DEPENDENCIES\OPENCSG-1.5.1\WIN32\DEBUG\OPENCSGD.PDB
